Exploration and Analysis of US Beers and Breweries
…
# set a constant for the graphical display
n <- 12

# find the maximum ABV and IBU values for each state and store in dataframe
max_ABV = bb_clean_ABV %>%
  group_by(State)%>% 
  summarise(MaxABV=max(ABV))

max_IBU = bb_clean_IBU %>%
  group_by(State)%>% 
  summarise(MaxIBU=max(IBU))

max_ABV %>% arrange(desc(MaxABV))

## # A tibble: 51 x 2
##    State MaxABV
##    <chr>  <dbl>
##  1 CO     0.128
##  2 KY     0.125
##  3 IN     0.12 
##  4 NY     0.1  
##  5 CA     0.099
##  6 ID     0.099
##  7 MA     0.099
##  8 ME     0.099
##  9 MI     0.099
## 10 MN     0.099
## # ... with 41 more rows
…
